module BNL.gov/golpgbtdongle

go 1.17

require (
	github.com/c-bata/go-prompt v0.2.6
	github.com/sstallion/go-hid v0.0.0-20211019232252-c64377bfa49e
	gopkg.in/yaml.v3 v3.0.0-20210107192922-496545a6307b
)

require (
	github.com/mattn/go-colorable v0.1.7 // indirect
	github.com/mattn/go-isatty v0.0.12 // indirect
	github.com/mattn/go-runewidth v0.0.9 // indirect
	github.com/mattn/go-tty v0.0.3 // indirect
	github.com/pkg/term v1.2.0-beta.2 // indirect
	golang.org/x/sys v0.0.0-20200918174421-af09f7315aff // indirect
)
